{
    "a": "adjective ending",
    "aj": "adjective ending, plural",
    "ajn": "adjective ending, plural, accusative",
    "an": "adjective ending, singular, accusative",
    "as": "present tense",
    "e": "adverb",
    "en": "adverb with direction toward",
    "i": "infinitive ending",
    "is": "past tense",
    "o": "noun ending, singular",
    "oj": "noun ending, plural",
    "ojn": "noun ending, plural, accusative",
    "on": "noun ending, singular, accusative",
    "os": "future tense",
    "u": "imperative form",
    "us": "conditional or subjunctive ending"
}

